{
  "editor": [
    {
      "icon": "",
      "key": "preGame",
      "header": "Pre Game Settings",
      "disabled": false,
      "fields": [
        {
          "key": "bgImg",
          "header": "Background Image",
          "type": "image"
        },
        {
          "key": "bgImgScaleX",
          "header": "Background Image Scale X",
          "type": "range",
          "options": {
            "minValue": 0,
            "maxValue": 2,
            "stepSize": "0.01"
          }
        },
        {
          "key": "bgImgScaleY",
          "header": "Background Image Scale Y",
          "type": "range",
          "options": {
            "minValue": 0,
            "maxValue": 2,
            "stepSize": "0.01"
          }
        },
        {
          "key": "boxImg",
          "header": "Box Image",
          "type": "image"
        },
        {
          "key": "title",
          "header": "Game Title",
          "type": "text"
        },
        {
          "key": "flipSound",
          "header": "On Flip Sound",
          "type": "sound"
        },
        {
          "key": "textColor",
          "header": "Text Color",
          "type": "color"
        },
        {
          "key": "confetti1",
          "header": "Confetti Image 1",
          "type": "image"
        },
        {
          "key": "confetti2",
          "header": "Confetti Image 2",
          "type": "image"
        },
        {
          "key": "confetti3",
          "header": "Confetti Image 3",
          "type": "image"
        },
        {
          "key": "confetti4",
          "header": "Confetti Image 4",
          "type": "image"
        }
      ]
    },
    {
      "icon": "",
      "key": "Game",
      "header": "Game Settings",
      "disabled": false,
      "fields": [
        {
          "key": "instruction1",
          "header": "Instruction 1",
          "type": "text"
        },
        {
          "key": "instruction2",
          "header": "Instruction 2",
          "type": "text"
        },
        {
          "key": "gameTime",
          "header": "Total Time",
          "type": "range",
          "options": {
            "minValue": 0,
            "maxValue": 500,
            "stepSize": "10"
          }
        },
        {
          "key": "scoreText",
          "header": "Score Text",
          "type": "array",
          "fields": [
            {
              "key": "text1",
              "header": "Text 1",
              "type": "text"
            },
            {
              "key": "text2",
              "header": "Text 2",
              "type": "text"
            },
            {
              "key": "text3",
              "header": "Text 3",
              "type": "text"
            },
            {
              "key": "text4",
              "header": "Text 4",
              "type": "text"
            },
            {
              "key": "text5",
              "header": "Text 5",
              "type": "text"
            },
            {
              "key": "text6",
              "header": "Text 6",
              "type": "text"
            },
            {
              "key": "text7",
              "header": "Text 7",
              "type": "text"
            }
          ]
        },
        {
          "key": "ctaText",
          "header": "Cta Text",
          "type": "text"
        },
        {
          "key": "ctaUrl",
          "header": "Cta URL",
          "type": "text"
        }
      ]
    }
  ],
  "config": {
    "preGame": {
      "bgImg": "../assets/bg1.jpg",
      "bgImgScaleX": 1.2,
      "bgImgScaleY": 1,
      "boxImg": "../assets/box.png",
      "title": "Flippy Box",
      "flipSound": "../assets/win.mp3",
      "textColor": "#000",
      "confetti1": "../assets/circle-red.png",
      "confetti2": "../assets/rectangle-green.png",
      "confetti3": "./assets/rectangle-yellow.png",
      "confetti4": "../assets/triangle-blue.png"
    },
    "game": {
      "instruction1": "Tap On the Box to flip it",
      "instruction2": "Score Points when the box points upwards",
      "gameTime": 60,
      "scoreText": {
        "text1": "Flippage!",
        "text2": "Fliptacious!",
        "text3": "Fliptality!",
        "text4": "Fliptastic!",
        "text5": "Flippity!",
        "text6": "Nice flip!",
        "text7": "What a flip!"
      },
      "ctaText": "Check Out Playcent",
      "ctaUrl": "https://www.placent.com"
    }
  }
}
